MUATHUONGLUU	LUONGMUA	0.00	mm	20220719230515	00
THUONGLUU	MUCNUOC	168.96	m	20220719230515	00
HALUU	MUCNUOC	158.00	m	20220719230515	00
DUNGTICH	DUNGTICH	158.00	trieum3	20220719230515	00
QDEN	LUULUONG	42.95	m3/s	20220719230515	00
QUATRAN	LUULUONG	0.00	m3/s	20220719230515	00
NHAMAY	LUULUONG	41.28	m3/s	20220719230515	00
DCTT	LUULUONG	0.56	m3/s	20220719230515	00
LUULUONGHADU	LUULUONG	41.84	m3/s	20220719230515	00
DUKIENLUULUONGHADU	LUULUONG	0.00	m3/s	20220719230515	00
MUCNUOCHODUKIEN12GIO	LUULUONG	0.00	m	20220719230515	00
